verilog_files/Lab_2_Code/lab2_decoder_tb.vcd
$date
	Tue Jun 29 19:56:32 2021
$end
$version
	Icarus Verilog
$end
$timescale
	1ns
$end
$scope module lab2_decoder_24_b_tb $end
$var wire 4 ! Y [0:3] $end
$var reg 1 " A $end
$var reg 1 # B $end
$var reg 1 $ en $end
$scope module uut3 $end
$var wire 1 " A $end
$var wire 1 # B $end
$var wire 1 $ E $end
$var reg 4 % Z [0:3] $end
$upscope $end
$upscope $end
$scope module lab2_decoder_24_s_tb $end
$var wire 4 & Y [0:3] $end
$var reg 1 ' A $end
$var reg 1 ( B $end
$var reg 1 ) en $end
$scope module uut4 $end
$var wire 1 ' A $end
$var wire 1 ( B $end
$var wire 1 ) E $end
$var wire 4 * Z [0:3] $end
$upscope $end
$upscope $end
$scope module lab2_decoder_38_b_tb $end
$var wire 8 + Z [0:7] $end
$var reg 1 , A $end
$var reg 1 - B $end
$var reg 1 . C $end
$var reg 1 / en $end
$scope module uut $end
$var wire 1 , A $end
$var wire 1 - B $end
$var wire 1 . C $end
$var wire 1 / E $end
$var reg 8 0 Z [0:7] $end
$upscope $end
$upscope $end
$scope module lab2_decoder_38_s_tb $end
$var wire 8 1 Z [0:7] $end
$var reg 1 2 A $end
$var reg 1 3 B $end
$var reg 1 4 C $end
$var reg 1 5 en $end
$scope module uut2 $end
$var wire 1 2 A $end
$var wire 1 3 B $end
$var wire 1 4 C $end
$var wire 1 5 E $end
$var wire 8 6 Z [0:7] $end
$upscope $end
$upscope $end
$enddefinitions $end
#0
$dumpvars
b0 6
05
04
03
02
b0 1
b0 0
0/
0.
0-
0,
b0 +
b0 *
0)
0(
0'
b0 &
b0 %
0$
0#
0"
b0 !
$end
#10
14
1.
1(
1#
#20
04
13
0.
1-
0(
1'
0#
1"
#30
14
1.
1(
1#
#40
b1000 !
b1000 %
b1000 &
b1000 *
04
03
12
0.
0-
1,
1)
0(
0'
1$
0#
0"
#50
b100 !
b100 %
b100 &
b100 *
14
1.
1(
1#
#60
b10 !
b10 %
b10 &
b10 *
04
13
0.
1-
0(
1'
0#
1"
#70
b1 !
b1 %
b1 &
b1 *
14
1.
1(
1#
#80
b10000000 +
b10000000 0
b10000000 1
b10000000 6
15
04
03
02
1/
0.
0-
0,
#90
b1000000 +
b1000000 0
b1000000 1
b1000000 6
14
1.
#100
b100000 +
b100000 0
b100000 1
b100000 6
04
13
0.
1-
#110
b10000 +
b10000 0
b10000 1
b10000 6
14
1.
#120
b1000 +
b1000 0
b1000 1
b1000 6
04
03
12
0.
0-
1,
#130
b100 +
b100 0
b100 1
b100 6
14
1.
#140
b10 +
b10 0
b10 1
b10 6
04
13
0.
1-
#150
b1 +
b1 0
b1 1
b1 6
14
1.
